<svg width="52" height="40" viewBox="0 0 52 40" fill="none" xmlns="http://www.w3.org/2000/svg">
<path d="M8.21053 0.796875H43.7895C45.967 0.796875 48.0554 1.61528 49.5952 3.07206C51.135 4.52884 52 6.50465 52 8.56484V31.8687C52 33.9289 51.135 35.9048 49.5952 37.3615C48.0554 38.8183 45.967 39.6367 43.7895 39.6367H8.21053C6.03296 39.6367 3.94458 38.8183 2.40481 37.3615C0.865035 35.9048 0 33.9289 0 31.8687V8.56484C0 6.50465 0.865035 4.52884 2.40481 3.07206C3.94458 1.61528 6.03296 0.796875 8.21053 0.796875ZM8.21053 3.3862C6.87495 3.3862 5.64884 3.83933 4.69916 4.59282L26 17.6793L47.3008 4.59282C46.3171 3.81192 45.0736 3.3846 43.7895 3.3862H8.21053ZM26 20.7657L3.10358 6.70053C2.86079 7.29523 2.73644 7.92732 2.73684 8.56484V31.8687C2.73684 33.2422 3.31353 34.5594 4.34005 35.5306C5.36656 36.5018 6.75881 37.0474 8.21053 37.0474H43.7895C45.2412 37.0474 46.6334 36.5018 47.66 35.5306C48.6865 34.5594 49.2632 33.2422 49.2632 31.8687V8.56484C49.2632 7.90716 49.1345 7.27795 48.8964 6.70053L26 20.7631V20.7657Z" fill="#98AB3F"/>
</svg>
